{
    "data": {
        "airedSeasons": [
            "10",
            "9",
            "8",
            "0",
            "7",
            "12",
            "11",
            "4",
            "3",
            "2",
            "1",
            "6",
            "5"
        ],
        "airedEpisodes": "285",
        "dvdSeasons": [
            "10",
            "9",
            "8",
            "7",
            "12",
            "11",
            "0",
            "3",
            "2",
            "1",
            "6",
            "5"
        ],
        "dvdEpisodes": "252"
    }
}
